===> Started at: Mon Jan 30 14:40:47 CET 2023
===> Generating: /home/savary/PARSEME/PARSEME-corpora/Gitlab/parseme_corpus_languages/parseme_corpus_de/UDPIPE-REANNOTATION/WMT.new.cupt
WARNING: CoNLL-U file `/home/savary/PARSEME/PARSEME-corpora/Gitlab/parseme_corpus_languages/parseme_corpus_de/conllu/WMT.conllu` not found
WARNING: Not using any CoNLL-U file
  % Total    % Received % Xferd  Average Speed   Time    Time     Time  Current
                                 Dload  Upload   Total   Spent    Left  Speed
  0     0    0     0    0     0      0      0 --:--:-- --:--:-- --:--:--     0 14 3906k    0     0   14  576k      0  2064k  0:00:01 --:--:--  0:00:01 2057k100 3906k    0     0  100 3906k      0  2096k  0:00:01  0:00:01 --:--:-- 2095k100 3952k    0 46779  100 3906k  15031  1255k  0:00:03  0:00:03 --:--:-- 1270k100 4016k    0  109k  100 3906k  30135  1048k  0:00:03  0:00:03 --:--:-- 1077k100 4048k    0  141k  100 3906k  31214   840k  0:00:04  0:00:04 --:--:--  870k100 4145k    0  238k  100 3906k  41617   664k  0:00:05  0:00:05 --:--:--  637k100 4208k    0  301k  100 3906k  48344   611k  0:00:06  0:00:06 --:--:-- 68240100 4304k    0  397k  100 3906k  52710   505k  0:00:07  0:00:07 --:--:-- 78151100 4340k    0  433k  100 3906k  53279   468k  0:00:08  0:00:08 --:--:-- 71982100 4479k    0  573k  100 3906k  61372   408k  0:00:09  0:00:09 --:--:-- 89887100 4560k    0  653k  100 3906k  61415   358k  0:00:10  0:00:10 --:--:-- 84602100 4592k    0  685k  100 3906k  61001   339k  0:00:11  0:00:11 --:--:-- 76798100 4688k    0  781k  100 3906k  61824   301k  0:00:12  0:00:12 --:--:-- 75299100 4721k    0  814k  100 3906k  61079   285k  0:00:13  0:00:13 --:--:-- 73301100 4789k    0  883k  100 3906k  63360   273k  0:00:14  0:00:14 --:--:-- 67384100 4890k    0  983k  100 3906k  64966   251k  0:00:15  0:00:15 --:--:-- 73346100 4976k    0 1069k  100 3906k  65049   232k  0:00:16  0:00:16 --:--:-- 73812100 5054k    0 1147k  100 3906k  67359   223k  0:00:17  0:00:17 --:--:-- 83257100 5136k    0 1229k  100 3906k  67789   210k  0:00:18  0:00:18 --:--:-- 86426100 5223k    0 1317k  100 3906k  68104   197k  0:00:19  0:00:19 --:--:-- 80357100 5290k    0 1383k  100 3906k  68441   188k  0:00:20  0:00:20 --:--:-- 78813100 5363k    0 1456k  100 3906k  69190   181k  0:00:21  0:00:21 --:--:-- 83939100 5406k    0 1499k  100 3906k  68579   174k  0:00:22  0:00:22 --:--:-- 72885100 5497k    0 1591k  100 3906k  68473   164k  0:00:23  0:00:23 --:--:-- 70916100 5549k    0 1642k  100 3906k  69191   160k  0:00:24  0:00:24 --:--:-- 73967100 5649k    0 1743k  100 3906k  69336   151k  0:00:25  0:00:25 --:--:-- 73014100 5720k    0 1813k  100 3906k  70652   148k  0:00:26  0:00:26 --:--:-- 77293100 5809k    0 1903k  100 3906k  70119   140k  0:00:27  0:00:27 --:--:-- 76507100 5840k    0 1933k  100 3906k  69781   137k  0:00:28  0:00:28 --:--:-- 76572100 5969k    0 2062k  100 3906k  71281   131k  0:00:29  0:00:29 --:--:-- 80826100 6000k    0 2093k  100 3906k  69920   127k  0:00:30  0:00:30 --:--:-- 72976100 6065k    0 2158k  100 3906k  70231   124k  0:00:31  0:00:31 --:--:-- 68109100 6174k    0 2267k  100 3906k  70770   119k  0:00:32  0:00:32 --:--:-- 74391100 6224k    0 2317k  100 3906k  70784   116k  0:00:33  0:00:33 --:--:-- 76322100 6282k    0 2376k  100 3906k  70993   113k  0:00:34  0:00:34 --:--:-- 69154100 6382k    0 2475k  100 3906k  71880   110k  0:00:35  0:00:35 --:--:-- 84913100 6481k    0 2575k  100 3906k  71650   106k  0:00:36  0:00:36 --:--:-- 80058100 6541k    0 2634k  100 3906k  71705   103k  0:00:37  0:00:37 --:--:-- 78059100 6565k    0 2658k  100 3906k  71009   101k  0:00:38  0:00:38 --:--:-- 72573100 6673k    0 2766k  100 3906k  71633    98k  0:00:39  0:00:39 --:--:-- 75807100 6730k    0 2824k  100 3906k  71606  99048  0:00:40  0:00:40 --:--:-- 69735100 6832k    0 2925k  100 3906k  71805  95888  0:00:41  0:00:41 --:--:-- 72961100 6893k    0 2986k  100 3906k  72243  94497  0:00:42  0:00:42 --:--:-- 76544100 6994k    0 3088k  100 3906k  72594  91831  0:00:43  0:00:43 --:--:-- 84249100 7036k    0 3130k  100 3906k  72388  90344  0:00:44  0:00:44 --:--:-- 78681100 7141k    0 3234k  100 3906k  72459  87512  0:00:45  0:00:45 --:--:-- 78925100 7188k    0 3281k  100 3906k  72377  86160  0:00:46  0:00:46 --:--:-- 77448100 7277k    0 3370k  100 3906k  72269  83761  0:00:47  0:00:47 --:--:-- 72468100 7375k    0 3468k  100 3906k  73559  82850  0:00:48  0:00:48 --:--:-- 82454100 7432k    0 3525k  100 3906k  72629  80482  0:00:49  0:00:49 --:--:-- 74600100 7496k    0 3589k  100 3906k  73048  79503  0:00:50  0:00:50 --:--:-- 78884100 7607k    0 3700k  100 3906k  73509  77603  0:00:51  0:00:51 --:--:-- 83767100 7682k    0 3775k  100 3906k  72687  75206  0:00:53  0:00:53 --:--:-- 76381100 7697k    0 3790k  100 3906k  72550  74766  0:00:53  0:00:53 --:--:-- 63226100 7813k    0 3906k  100 3906k  73086  73085  0:00:54  0:00:54 --:--:-- 77613100 7870k    0 3963k  100 3906k  73346  72288  0:00:55  0:00:55 --:--:-- 76329100 7973k    0 4066k  100 3906k  73745  70844  0:00:56  0:00:56 --:--:-- 76212100 8002k    0 4095k  100 3906k  72940  69571  0:00:57  0:00:57 --:--:-- 76045100 8098k    0 4191k  100 3906k  72496  67564  0:00:59  0:00:59 --:--:-- 71991100 8162k    0 4255k  100 3906k  73490  67460  0:00:59  0:00:59 --:--:-- 78343100 8248k    0 4341k  100 3906k  73666  66280  0:01:00  0:01:00 --:--:-- 77192100 8330k    0 4423k  100 3906k  73433  64848  0:01:01  0:01:01 --:--:-- 70068100 8416k    0 4509k  100 3906k  74209  64282  0:01:02  0:01:02 --:--:-- 89643
  % Total    % Received % Xferd  Average Speed   Time    Time     Time  Current
                                 Dload  Upload   Total   Spent    Left  Speed
  0     0    0     0    0     0      0      0 --:--:-- --:--:-- --:--:--     0100 3905k    0     0  100 3905k      0  2600k  0:00:01  0:00:01 --:--:-- 2600k100 3954k    0 49667  100 3905k  20380  1602k  0:00:02  0:00:02 --:--:-- 1622k100 4018k    0  112k  100 3905k  36525  1238k  0:00:03  0:00:03 --:--:-- 1273k100 4046k    0  141k  100 3905k  36454   983k  0:00:03  0:00:03 --:--:-- 1018k100 4146k    0  240k  100 3905k  45548   722k  0:00:05  0:00:05 --:--:--  766k100 4164k    0  258k  100 3905k  44501   656k  0:00:05  0:00:05 --:--:-- 59511100 4251k    0  345k  100 3905k  50748   559k  0:00:06  0:00:06 --:--:-- 67039100 4335k    0  429k  100 3905k  55331   491k  0:00:07  0:00:07 --:--:-- 67679100 4398k    0  493k  100 3905k  56449   436k  0:00:08  0:00:08 --:--:-- 72408100 4503k    0  597k  100 3905k  60518   386k  0:00:10  0:00:10 --:--:-- 77687100 4585k    0  679k  100 3905k  60264   338k  0:00:11  0:00:11 --:--:-- 77029100 4645k    0  739k  100 3905k  62638   322k  0:00:12  0:00:12 --:--:-- 78867100 4686k    0  781k  100 3905k  61629   300k  0:00:12  0:00:12 --:--:-- 71583100 4808k    0  902k  100 3905k  63651   268k  0:00:14  0:00:14 --:--:-- 75224100 4919k    0 1014k  100 3905k  67246   252k  0:00:15  0:00:15 --:--:-- 80042100 4975k    0 1069k  100 3905k  67360   240k  0:00:16  0:00:16 --:--:-- 84745100 5072k    0 1166k  100 3905k  67916   221k  0:00:17  0:00:17 --:--:-- 79539100 5134k    0 1229k  100 3905k  67999   210k  0:00:18  0:00:18 --:--:-- 82970100 5207k    0 1301k  100 3905k  69693   204k  0:00:19  0:00:19 --:--:-- 88713100 5307k    0 1402k  100 3905k  70885   192k  0:00:20  0:00:20 --:--:-- 82548100 5326k    0 1421k  100 3905k  68736   184k  0:00:21  0:00:21 --:--:-- 73274100 5392k    0 1486k  100 3905k  69209   177k  0:00:21  0:00:21 --:--:-- 74354100 5508k    0 1602k  100 3905k  69988   166k  0:00:23  0:00:23 --:--:-- 77433100 5559k    0 1653k  100 3905k  70429   162k  0:00:24  0:00:24 --:--:-- 73276100 5644k    0 1738k  100 3905k  70158   153k  0:00:25  0:00:25 --:--:-- 67295100 5723k    0 1818k  100 3905k  71608   150k  0:00:26  0:00:26 --:--:-- 84207100 5815k    0 1909k  100 3905k  71852   143k  0:00:27  0:00:27 --:--:-- 83007100 5905k    0 2000k  100 3905k  71743   136k  0:00:28  0:00:28 --:--:-- 79825100 5934k    0 2029k  100 3905k  71257   133k  0:00:29  0:00:29 --:--:-- 75164100 6003k    0 2097k  100 3905k  71641   130k  0:00:29  0:00:29 --:--:-- 79807100 6095k    0 2189k  100 3905k  70679   123k  0:00:31  0:00:31 --:--:-- 66456100 6161k    0 2256k  100 3905k  71218   120k  0:00:32  0:00:32 --:--:-- 67915100 6226k    0 2320k  100 3905k  71893   118k  0:00:33  0:00:33 --:--:-- 72827100 6308k    0 2402k  100 3905k  70913   112k  0:00:34  0:00:34 --:--:-- 69113100 6356k    0 2451k  100 3905k  71086   110k  0:00:35  0:00:35 --:--:-- 67974100 6465k    0 2559k  100 3905k  72901   108k  0:00:35  0:00:35 --:--:-- 89534100 6528k    0 2622k  100 3905k  72292   105k  0:00:37  0:00:37 --:--:-- 79672100 6644k    0 2739k  100 3905k  72885   101k  0:00:38  0:00:38 --:--:-- 78938100 6670k    0 2765k  100 3905k  72621   100k  0:00:38  0:00:38 --:--:-- 86381100 6771k    0 2865k  100 3905k  72768  99172  0:00:40  0:00:40 --:--:-- 84621100 6835k    0 2929k  100 3905k  72920  97200  0:00:41  0:00:41 --:--:-- 73067100 6936k    0 3031k  100 3905k  73722  94982  0:00:42  0:00:42 --:--:-- 84444100 7023k    0 3117k  100 3905k  73219  91721  0:00:43  0:00:43 --:--:-- 75731100 7059k    0 3153k  100 3905k  73034  90445  0:00:44  0:00:44 --:--:-- 76130100 7121k    0 3216k  100 3905k  73129  88800  0:00:45  0:00:45 --:--:-- 76204100 7150k    0 3245k  100 3905k  72312  87019  0:00:45  0:00:45 --:--:-- 67115100 7278k    0 3373k  100 3905k  73048  84569  0:00:47  0:00:47 --:--:-- 67577100 7361k    0 3455k  100 3905k  73772  83372  0:00:47  0:00:47 --:--:-- 79283100 7404k    0 3498k  100 3905k  72917  81397  0:00:49  0:00:49 --:--:-- 71866100 7457k    0 3551k  100 3905k  72455  79670  0:00:50  0:00:50 --:--:-- 66585100 7504k    0 3598k  100 3905k  71860  77983  0:00:51  0:00:51 --:--:-- 67974100 7628k    0 3722k  100 3905k  72734  76308  0:00:52  0:00:52 --:--:-- 69835100 7713k    0 3807k  100 3905k  73636  75525  0:00:52  0:00:52 --:--:-- 72321100 7758k    0 3853k  100 3905k  72626  73607  0:00:54  0:00:54 --:--:-- 69872100 7857k    0 3952k  100 3905k  72660  71800  0:00:55  0:00:55 --:--:-- 74533100 7921k    0 4016k  100 3905k  73032  71017  0:00:56  0:00:56 --:--:-- 84976100 8029k    0 4123k  100 3905k  73444  69560  0:00:57  0:00:57 --:--:-- 80772100 8087k    0 4181k  100 3905k  73779  68902  0:00:58  0:00:58 --:--:-- 75279100 8194k    0 4289k  100 3905k  74102  67473  0:00:59  0:00:59 --:--:-- 90347100 8225k    0 4319k  100 3905k  73351  66316  0:01:00  0:01:00 --:--:-- 81690100 8270k    0 4365k  100 3905k  72900  65220  0:01:01  0:01:01 --:--:-- 71438100 8383k    0 4478k  100 3905k  73680  64254  0:01:02  0:01:02 --:--:-- 76524100 8415k    0 4509k  100 3905k  74158  64220  0:01:02  0:01:02 --:--:-- 79381
  % Total    % Received % Xferd  Average Speed   Time    Time     Time  Current
                                 Dload  Upload   Total   Spent    Left  Speed
  0     0    0     0    0     0      0      0 --:--:-- --:--:-- --:--:--     0100 2505k    0     0  100 2505k      0  1726k  0:00:01  0:00:01 --:--:-- 1726k100 2520k    0 15219  100 2505k   9411  1549k  0:00:01  0:00:01 --:--:-- 1557k100 2615k    0  109k  100 2505k  33383   746k  0:00:03  0:00:03 --:--:--  779k100 2669k    0  164k  100 2505k  42278   630k  0:00:03  0:00:03 --:--:--  671k100 2725k    0  219k  100 2505k  47951   534k  0:00:04  0:00:04 --:--:--  581k100 2807k    0  301k  100 2505k  53091   430k  0:00:05  0:00:05 --:--:-- 70748100 2907k    0  401k  100 2505k  58393   355k  0:00:07  0:00:07 --:--:-- 73001100 2967k    0  461k  100 2505k  60977   323k  0:00:07  0:00:07 --:--:-- 82050100 3000k    0  494k  100 2505k  59059   292k  0:00:08  0:00:08 --:--:-- 73515100 3107k    0  602k  100 2505k  62214   252k  0:00:09  0:00:09 --:--:-- 75022100 3224k    0  718k  100 2505k  64883   220k  0:00:11  0:00:11 --:--:-- 77293100 3258k    0  752k  100 2505k  64967   211k  0:00:11  0:00:11 --:--:-- 74589100 3320k    0  814k  100 2505k  65301   196k  0:00:12  0:00:12 --:--:-- 71963100 3416k    0  910k  100 2505k  66103   177k  0:00:14  0:00:14 --:--:-- 77045100 3451k    0  945k  100 2505k  65300   169k  0:00:14  0:00:14 --:--:-- 71521100 3511k    0 1005k  100 2505k  65377   159k  0:00:15  0:00:15 --:--:-- 66635100 3608k    0 1102k  100 2505k  65331   144k  0:00:17  0:00:17 --:--:-- 66126100 3642k    0 1136k  100 2505k  65023   140k  0:00:17  0:00:17 --:--:-- 64329100 3704k    0 1198k  100 2505k  65928   134k  0:00:18  0:00:18 --:--:-- 65366100 3834k    0 1328k  100 2505k  67494   124k  0:00:20  0:00:20 --:--:-- 73602100 3861k    0 1355k  100 2505k  66856   120k  0:00:20  0:00:20 --:--:-- 71510100 3928k    0 1422k  100 2505k  67500   116k  0:00:21  0:00:21 --:--:-- 76204100 3945k    0 1439k  100 2505k  65205   110k  0:00:22  0:00:22 --:--:-- 65881100 4092k    0 1587k  100 2505k  67592   104k  0:00:24  0:00:24 --:--:-- 73313100 4116k    0 1610k  100 2505k  66607   101k  0:00:24  0:00:24 --:--:-- 62731100 4255k    0 1749k  100 2505k  68613  98249  0:00:26  0:00:26 --:--:-- 75449100 4276k    0 1770k  100 2505k  67894  96082  0:00:26  0:00:26 --:--:-- 69566100 4343k    0 1837k  100 2505k  68107  92879  0:00:27  0:00:27 --:--:-- 81209100 4433k    0 1928k  100 2505k  67699  87984  0:00:29  0:00:29 --:--:-- 68200100 4504k    0 1998k  100 2505k  68503  85875  0:00:29  0:00:29 --:--:-- 77677100 4535k    0 2029k  100 2505k  67930  83863  0:00:30  0:00:30 --:--:-- 63932100 4631k    0 2125k  100 2505k  67888  80036  0:00:32  0:00:32 --:--:-- 67875100 4698k    0 2192k  100 2505k  68768  78602  0:00:32  0:00:32 --:--:-- 72422100 4799k    0 2293k  100 2505k  69339  75750  0:00:33  0:00:33 --:--:-- 79478100 4892k    0 2387k  100 2505k  69636  73098  0:00:35  0:00:35 --:--:-- 76131100 4933k    0 2427k  100 2505k  69705  71950  0:00:35  0:00:35 --:--:-- 80442100 5050k    0 2544k  100 2505k  70130  69068  0:00:37  0:00:37 --:--:-- 84259100 5065k    0 2559k  100 2505k  68656  67206  0:00:38  0:00:38 --:--:-- 67994100 5137k    0 2631k  100 2505k  69295  65976  0:00:38  0:00:38 --:--:-- 69011100 5175k    0 2669k  100 2505k  68838  64617  0:00:39  0:00:39 --:--:-- 62758100 5274k    0 2768k  100 2505k  69248  62675  0:00:40  0:00:40 --:--:-- 66158100 5327k    0 2821k  100 2505k  69188  61446  0:00:41  0:00:41 --:--:-- 61582100 5394k    0 2889k  100 2505k  70748  61362  0:00:41  0:00:41 --:--:-- 92692
===> File ready: /home/savary/PARSEME/PARSEME-corpora/Gitlab/parseme_corpus_languages/parseme_corpus_de/UDPIPE-REANNOTATION/WMT.new.cupt
===> Finished at: Mon Jan 30 14:43:38 CET 2023
